…
```r
Height
```

```
## # A tibble: 1,192 × 6
##     earn height sex       ed   age race    
##    <dbl>  <dbl> <chr>  <dbl> <dbl> <chr>   
##  1 50000   74.4 male      16    45 white   
##  2 60000   65.5 female    16    58 white   
##  3 30000   63.6 female    16    29 white   
##  4 50000   63.1 female    16    91 other   
##  5 51000   63.4 female    17    39 white   
##  6  9000   64.4 female    15    26 white   
##  7 29000   61.7 female    12    49 white   
##  8 32000   72.7 male      17    46 white   
##  9  2000   72.0 male      15    21 hispanic
## 10 27000   72.2 male      12    26 white   
## # … with 1,182 more rows
```
…
```r
HeightEd1 <- HeightEd %>%
  group_by(race) %>%
  count(ed)
HeightEd1
```

```
## # A tibble: 24 × 3
## # Groups:   race [4]
##    race     ed                   n
##    <chr>    <fct>            <int>
##  1 black    primary              2
##  2 black    secondary           14
##  3 black    highschoolgrad      36
##  4 black    associates          38
##  5 black    bachelors           13
##  6 black    mastersdoctorate     9
##  7 hispanic primary              3
##  8 hispanic secondary            6
##  9 hispanic highschoolgrad      19
## 10 hispanic associates          22
## # … with 14 more rows
```
…
```r
HeightEd3 <- HeightEd %>%
  group_by(earn) %>%
  count(ed)
HeightEd3
```

```
## # A tibble: 312 × 3
## # Groups:   earn [133]
##     earn ed                 n
##    <dbl> <fct>          <int>
##  1   200 highschoolgrad     1
##  2   200 bachelors          1
##  3   265 associates         1
##  4   400 highschoolgrad     1
##  5   600 secondary          1
##  6   600 highschoolgrad     2
##  7   700 highschoolgrad     1
##  8   700 bachelors          1
##  9  1000 highschoolgrad     5
## 10  1000 associates         3
## # … with 302 more rows
```
…
