…
```r
library(timetk)
library(dygraphs)
```
Stocks I chose: MSFT (Microsoft), SONY (Sony), NTDOF (Nintendo)
Stocks my friend chose Meta (Facebook), ATVI (Activision Blizzard), TTWO (Take Two Interactive)


```r
(Microsoft <- tq_get("MSFT", get = "stock.prices"))
```

```
## # A tibble: 2,727 × 8
##    symbol date        open  high   low close   volume adjusted
##    <chr>  <date>     <dbl> <dbl> <dbl> <dbl>    <dbl>    <dbl>
##  1 MSFT   2012-01-03  26.5  27.0  26.4  26.8 64731500     21.5
##  2 MSFT   2012-01-04  26.8  27.5  26.8  27.4 80516100     22.0
##  3 MSFT   2012-01-05  27.4  27.7  27.3  27.7 56081400     22.3
##  4 MSFT   2012-01-06  27.5  28.2  27.5  28.1 99455500     22.6
##  5 MSFT   2012-01-09  28.0  28.1  27.7  27.7 59706800     22.3
##  6 MSFT   2012-01-10  27.9  28.2  27.8  27.8 60014400     22.4
##  7 MSFT   2012-01-11  27.4  28.0  27.4  27.7 65582400     22.3
##  8 MSFT   2012-01-12  27.9  28.0  27.6  28   49370800     22.5
##  9 MSFT   2012-01-13  27.9  28.2  27.8  28.2 60196100     22.7
## 10 MSFT   2012-01-17  28.4  28.6  28.2  28.3 72395300     22.7
## # … with 2,717 more rows
```

```r
(Sony <- tq_get("SONY", get = "stock.prices"))
```

```
## # A tibble: 2,727 × 8
##    symbol date        open  high   low close  volume adjusted
##    <chr>  <date>     <dbl> <dbl> <dbl> <dbl>   <dbl>    <dbl>
##  1 SONY   2012-01-03  18.3  18.5  18.3  18.4 1414800     18.4
##  2 SONY   2012-01-04  18.2  18.3  18.1  18.2 1146400     18.2
##  3 SONY   2012-01-05  17.8  17.8  17.6  17.7 1464900     17.7
##  4 SONY   2012-01-06  17.6  17.6  17.4  17.4  594100     17.4
##  5 SONY   2012-01-09  17.5  17.5  17.4  17.5  529400     17.5
##  6 SONY   2012-01-10  17.7  17.8  17.6  17.7 1037400     17.7
##  7 SONY   2012-01-11  17.6  17.7  17.5  17.7  591200     17.7
##  8 SONY   2012-01-12  17.2  17.3  17.1  17.3  948800     17.3
##  9 SONY   2012-01-13  17.2  17.2  17.0  17.1  392000     17.1
## 10 SONY   2012-01-17  17    17    16.8  16.8 1156700     16.8
## # … with 2,717 more rows
```

```r
(Nintendo <- tq_get("NTDOF", get = "stock.prices"))
```

```
## # A tibble: 2,727 × 8
##    symbol date        open  high   low close volume adjusted
##    <chr>  <date>     <dbl> <dbl> <dbl> <dbl>  <dbl>    <dbl>
##  1 NTDOF  2012-01-03  14.0  14.0  14.0  14.0   1000     12.7
##  2 NTDOF  2012-01-04  14.0  14.0  14.0  14.0      0     12.7
##  3 NTDOF  2012-01-05  14.0  14.0  14.0  14.0      0     12.7
##  4 NTDOF  2012-01-06  14.0  14.0  14.0  14.0      0     12.7
##  5 NTDOF  2012-01-09  13.7  13.7  13.7  13.7      0     12.4
##  6 NTDOF  2012-01-10  13.7  13.7  13.7  13.7      0     12.4
##  7 NTDOF  2012-01-11  13.6  13.6  13.6  13.6   2000     12.3
##  8 NTDOF  2012-01-12  13.6  13.6  13.6  13.6   1000     12.3
##  9 NTDOF  2012-01-13  13.3  13.3  13.2  13.2   1000     11.9
## 10 NTDOF  2012-01-17  13.5  13.5  13.5  13.5   1000     12.2
## # … with 2,717 more rows
```

```r
(Meta <- tq_get("META", get = "stock.prices"))
```

```
## # A tibble: 2,632 × 8
##    symbol date        open  high   low close    volume adjusted
##    <chr>  <date>     <dbl> <dbl> <dbl> <dbl>     <dbl>    <dbl>
##  1 META   2012-05-18  42.0  45    38    38.2 573576400     38.2
##  2 META   2012-05-21  36.5  36.7  33    34.0 168192700     34.0
##  3 META   2012-05-22  32.6  33.6  30.9  31   101786600     31  
##  4 META   2012-05-23  31.4  32.5  31.4  32    73600000     32  
##  5 META   2012-05-24  33.0  33.2  31.8  33.0  50237200     33.0
##  6 META   2012-05-25  32.9  33.0  31.1  31.9  37149800     31.9
##  7 META   2012-05-29  31.5  31.7  28.6  28.8  78063400     28.8
##  8 META   2012-05-30  28.7  29.5  27.9  28.2  57267900     28.2
##  9 META   2012-05-31  28.5  29.7  26.8  29.6 111639200     29.6
## 10 META   2012-06-01  28.9  29.2  27.4  27.7  41855500     27.7
## # … with 2,622 more rows
```

```r
(Activision <- tq_get("ATVI", get = "stock.prices"))
```

```
## # A tibble: 2,727 × 8
##    symbol date        open  high   low close   volume adjusted
##    <chr>  <date>     <dbl> <dbl> <dbl> <dbl>    <dbl>    <dbl>
##  1 ATVI   2012-01-03  12.5  12.5  12.2  12.2 10330200     11.1
##  2 ATVI   2012-01-04  12.2  12.3  12.1  12.1  8551600     11.0
##  3 ATVI   2012-01-05  12.1  12.2  11.9  12.1  8809800     11.0
##  4 ATVI   2012-01-06  12.1  12.3  12.0  12.2  9625000     11.2
##  5 ATVI   2012-01-09  12.2  12.2  12.0  12.2  5827500     11.1
##  6 ATVI   2012-01-10  12.3  12.6  12.2  12.4  6011300     11.4
##  7 ATVI   2012-01-11  12.5  12.7  12.4  12.6  9253000     11.5
##  8 ATVI   2012-01-12  12.6  12.7  12.5  12.6  5077000     11.5
##  9 ATVI   2012-01-13  12.5  12.5  12.2  12.2 10131400     11.2
## 10 ATVI   2012-01-17  12.4  12.4  12.0  12.0 15108700     10.9
## # … with 2,717 more rows
```

```r
(TakeTwo<- tq_get("TTWO", get = "stock.prices"))
```

```
## # A tibble: 2,727 × 8
##    symbol date        open  high   low close  volume adjusted
##    <chr>  <date>     <dbl> <dbl> <dbl> <dbl>   <dbl>    <dbl>
##  1 TTWO   2012-01-03  13.8  14.0  13.8  14   3323800     14  
##  2 TTWO   2012-01-04  14.0  14.1  13.9  14   1882800     14  
##  3 TTWO   2012-01-05  14.2  14.9  14.1  14.7 3656900     14.7
##  4 TTWO   2012-01-06  14.6  15.0  14.5  14.8 2926800     14.8
##  5 TTWO   2012-01-09  14.8  15.0  14.6  14.9 2406700     14.9
##  6 TTWO   2012-01-10  15.0  15.1  14.3  14.5 2659100     14.5
##  7 TTWO   2012-01-11  14.4  14.6  14.3  14.5 1301700     14.5
##  8 TTWO   2012-01-12  14.3  14.6  14.1  14.6 1821700     14.6
##  9 TTWO   2012-01-13  14.4  14.5  14.2  14.5 1714300     14.5
## 10 TTWO   2012-01-17  14.5  15.0  14.5  14.8 3896900     14.8
## # … with 2,717 more rows
```
…
