…
```r
counties <- us_counties()
```

```r
FIPSsetup<-permits%>%
  mutate(state=as.character(state), stateFIPS=str_pad(state, 2,pad="0")) %>%
  mutate(county=as.character(county), countyFIPS=str_pad(county, 3,pad="0"))
FIPSsetup
```

```
## # A tibble: 327,422 × 10
##     ...1 state StateAbbr county countyname     variable     year value stateFIPS
##    <dbl> <chr> <chr>     <chr>  <chr>          <chr>       <dbl> <dbl> <chr>    
##  1     1 1     AL        1      Autauga County All Permits  2010   191 01       
##  2     2 1     AL        1      Autauga County All Permits  2009   110 01       
##  3     3 1     AL        1      Autauga County All Permits  2008   173 01       
##  4     4 1     AL        1      Autauga County All Permits  2007   260 01       
##  5     5 1     AL        1      Autauga County All Permits  2006   347 01       
##  6     6 1     AL        1      Autauga County All Permits  2005   313 01       
##  7     7 1     AL        1      Autauga County All Permits  2004   367 01       
##  8     8 1     AL        1      Autauga County All Permits  2003   283 01       
##  9     9 1     AL        1      Autauga County All Permits  2002   276 01       
## 10    10 1     AL        1      Autauga County All Permits  2001   400 01       
## # … with 327,412 more rows, and 1 more variable: countyFIPS <chr>
```
…
