…
```r
solodata
```

```
## # A tibble: 139 × 5
##    name              band              followers band_followers follower_differ…
##    <chr>             <chr>             <chr>     <chr>          <chr>           
##  1 Daron Jones       112               1.28k     783k           −782k           
##  2 Slim              112               2.14k     783k           −781k           
##  3 Q Parker          112               3.51k     783k           −780k           
##  4 JC Chasez         *NSYNC            30.8k     1.44M          −1.41M          
##  5 Joey Fatone       *NSYNC            1.13k     1.44M          −1.44M          
##  6 Justin Timberlake *NSYNC            10.3M     1.44M          8.90M           
##  7 Ashton Irwin      5 Seconds of Sum… 130k      7.14M          −7.01M          
##  8 Abz Love          5ive              223       19.0k          −18.7k          
##  9 Jeff Timmons      98º               111       302k           −302k           
## 10 Nick Lachey       98º               142k      302k           −160k           
## # … with 129 more rows
```
…
```r
billboard_data
```

```
## # A tibble: 456 × 5
##    name   band  title                     peak_date  peak_rank
##    <chr>  <chr> <chr>                     <date>         <dbl>
##  1 *NSYNC <NA>  It's Gonna Be Me          2000-07-28         1
##  2 *NSYNC <NA>  Music Of My Heart         1999-10-15         2
##  3 *NSYNC <NA>  Bye Bye Bye               2000-04-14         4
##  4 *NSYNC <NA>  This I Promise You        2000-12-01         5
##  5 *NSYNC <NA>  Girlfriend                2002-04-05         5
##  6 *NSYNC <NA>  A Little More Time On You 1999-02-26         8
##  7 *NSYNC <NA>  Gone                      2001-11-23        11
##  8 *NSYNC <NA>  I Want You Back           1998-05-01        13
##  9 *NSYNC <NA>  Pop                       2001-06-15        19
## 10 *NSYNC <NA>  Tearin' Up My Heart       1998-12-04        59
## # … with 446 more rows
```
…
Singers without 6 top 100 hits

```r
sixtop100 <- billboard_data %>%
  group_by(name) %>%
  filter(n() > 6, band != "")
sixtop100
```

```
## # A tibble: 144 × 5
## # Groups:   name [10]
##    name              band   title                           peak_date  peak_rank
##    <chr>             <chr>  <chr>                           <date>         <dbl>
##  1 Justin Timberlake *NSYNC SexyBack                        2006-09-08         1
##  2 Justin Timberlake *NSYNC My Love                         2006-11-10         1
##  3 Justin Timberlake *NSYNC What Goes Around...Comes Around 2007-03-02         1
##  4 Justin Timberlake *NSYNC Can't Stop The Feeling!         2016-05-27         1
##  5 Justin Timberlake *NSYNC Mirrors                         2013-06-14         2
##  6 Justin Timberlake *NSYNC Cry Me A River                  2003-01-31         3
##  7 Justin Timberlake *NSYNC Suit & Tie                      2013-04-05         3
##  8 Justin Timberlake *NSYNC Rock Your Body                  2003-05-09         5
##  9 Justin Timberlake *NSYNC Summer Love                     2007-06-08         6
## 10 Justin Timberlake *NSYNC Not A Bad Thing                 2014-05-02         8
## # … with 134 more rows
```
…
```r
videogamesales
```

```
## # A tibble: 16,598 × 11
##     Rank Name          Platform Year  Genre Publisher NA_Sales EU_Sales JP_Sales
##    <dbl> <chr>         <chr>    <chr> <chr> <chr>        <dbl>    <dbl>    <dbl>
##  1     1 Wii Sports    Wii      2006  Spor… Nintendo      41.5    29.0      3.77
##  2     2 Super Mario … NES      1985  Plat… Nintendo      29.1     3.58     6.81
##  3     3 Mario Kart W… Wii      2008  Raci… Nintendo      15.8    12.9      3.79
##  4     4 Wii Sports R… Wii      2009  Spor… Nintendo      15.8    11.0      3.28
##  5     5 Pokemon Red/… GB       1996  Role… Nintendo      11.3     8.89    10.2 
##  6     6 Tetris        GB       1989  Puzz… Nintendo      23.2     2.26     4.22
##  7     7 New Super Ma… DS       2006  Plat… Nintendo      11.4     9.23     6.5 
##  8     8 Wii Play      Wii      2006  Misc  Nintendo      14.0     9.2      2.93
##  9     9 New Super Ma… Wii      2009  Plat… Nintendo      14.6     7.06     4.7 
## 10    10 Duck Hunt     NES      1984  Shoo… Nintendo      26.9     0.63     0.28
## # … with 16,588 more rows, and 2 more variables: Other_Sales <dbl>,
## #   Global_Sales <dbl>
```
…
```r
gamblingdata
```

```
## # A tibble: 2,108,616 × 5
##     UserID DateBet    StakeF  WinF BetsF
##      <dbl> <date>      <dbl> <dbl> <dbl>
##  1 1324354 2005-10-01   40      0      6
##  2 1324354 2005-10-12   50      0      2
##  3 1324354 2005-09-24  132.   132.     7
##  4 1324354 2006-06-18   12.6    0      2
##  5 1324354 2005-10-13   15      0      3
##  6 1324354 2005-09-27   60     60      2
##  7 1324354 2005-10-22  158    199.     3
##  8 1324354 2005-09-23   66    196      3
##  9 1324354 2005-09-26   91.2  151.     5
## 10 1324354 2005-09-29  100      0      2
## # … with 2,108,606 more rows
```
…
```r
ticketsales
```

```
## # A tibble: 27 × 6
##     YEAR `TICKETS SOLD` `TOTAL BOX OFF…` `TOTAL INFLATI…` `AVERAGE TICKE…` ...6 
##    <dbl>          <dbl> <chr>            <chr>            <chr>            <lgl>
##  1  2021      423774881 $3,881,777,912   $3,881,777,912   $9.16            NA   
##  2  2020      223638958 $2,048,534,616   $2,048,534,616   $9.16            NA   
##  3  2019     1228541629 $11,253,443,955  $11,253,444,050  $9.16            NA   
##  4  2018     1311536128 $11,948,096,650  $12,013,670,952  $9.11            NA   
##  5  2017     1225639761 $10,993,991,460  $11,226,860,216  $8.97            NA   
##  6  2016     1302556378 $11,267,115,924  $11,931,416,424  $8.65            NA   
##  7  2015     1323356776 $11,155,900,636  $12,121,948,075  $8.43            NA   
##  8  2014     1257402920 $10,272,985,008  $11,517,810,744  $8.17            NA   
##  9  2013     1339168926 $10,887,446,341  $12,266,787,382  $8.13            NA   
## 10  2012     1380921942 $10,992,141,616  $12,649,244,986  $7.96            NA   
## # … with 17 more rows
```
…
